---
http_interactions:
- request:
    method: get
    uri: https://api.flickr.com/services/rest/?accuracy=11&api_key=<FLICKR_KEY>&format=json&lat=39.7392358&long=-104.990251&method=flickr.photos.search&nojsoncallback=true&tags=landscape,scenic,photography
    body:
      encoding: US-ASCII
      string: ''
    headers:
      User-Agent:
      - Faraday v0.15.4
      Accept-Encoding:
      - gzip;q=1.0,deflate;q=0.6,identity;q=0.3
      Accept:
      - "*/*"
  response:
    status:
      code: 200
      message: OK
    headers:
      Date:
      - Tue, 26 Feb 2019 21:54:13 GMT
      Content-Type:
      - application/json
      Content-Length:
      - '3348'
      P3p:
      - policyref="https://policies.yahoo.com/w3c/p3p.xml", CP="CAO DSP COR CUR ADM
        DEV TAI PSA PSD IVAi IVDi CONi TELo OTPi OUR DELi SAMi OTRi UNRi PUBi IND
        PHY ONL UNI PUR FIN COM NAV INT DEM CNT STA POL HEA PRE LOC GOV"
      Cache-Control:
      - private
      X-Served-By:
      - www248.flickr.gq1.yahoo.com
      X-Frame-Options:
      - SAMEORIGIN
      Vary:
      - Accept-Encoding
      Age:
      - '2'
      Via:
      - http/1.1 fts107.flickr.gq1.yahoo.com (ApacheTrafficServer [cMsSf ]), http/1.1
        e1.ycpi.dnb.yahoo.com (ApacheTrafficServer [cMsSf ])
      Server:
      - ATS
      Referrer-Policy:
      - no-referrer-when-downgrade
      Connection:
      - keep-alive
      Strict-Transport-Security:
      - max-age=15552000
      Expect-Ct:
      - max-age=31536000, report-uri="http://csp.yahoo.com/beacon/csp?src=yahoocom-expect-ct-report-only"
      X-Xss-Protection:
      - 1; mode=block
      X-Content-Type-Options:
      - nosniff
      Public-Key-Pins-Report-Only:
      - max-age=2592000; pin-sha256="2fRAUXyxl4A1/XHrKNBmc8bTkzA7y4FB/GLJuNAzCqY=";
        pin-sha256="I/Lt/z7ekCWanjD0Cvj5EqXls2lOaThEA0H2Bg4BT/o="; pin-sha256="Wd8xe/qfTwq3ylFNd3IpaqLHZbh2ZNCLluVzmeNkcpw=";
        pin-sha256="WoiWRyIOVNa9ihaBciRSC7XHjliYS9VwUGOIud4PB18="; pin-sha256="i7WTqTvh0OioIruIfFR4kMPnBqrS2rdiVPl/s2uC/CY=";
        pin-sha256="r/mIkG3eEpVdm+u/ko/cwxzOMo1bk4TyHIlByibiA5E="; pin-sha256="uUwZgwDOxcBXrQcntwu+kYFpkiVkOaezL0WYEZ3anJc=";
        pin-sha256="dolnbtzEBnELx/9lOEQ22e6OZO/QNb6VSSX2XHA3E7A="; includeSubdomains;
        report-uri="http://csp.yahoo.com/beacon/csp?src=yahoocom-hpkp-report-only"
    body:
      encoding: ASCII-8BIT
      string: '{"photos":{"page":1,"pages":7053,"perpage":100,"total":"705276","photo":[{"id":"32280139507","owner":"168423098@N03","secret":"37d9c586c9","server":"7816","farm":8,"title":"Aurora
        over volcano","ispublic":1,"isfriend":0,"isfamily":0},{"id":"32280132627","owner":"155326329@N08","secret":"137258d178","server":"7874","farm":8,"title":"32269084827_246b6b4dbb_o","ispublic":1,"isfriend":0,"isfamily":0},{"id":"47222283811","owner":"128878149@N07","secret":"96513f770a","server":"7851","farm":8,"title":"Vineyards
        in the Park of Curone at fall","ispublic":1,"isfriend":0,"isfamily":0},{"id":"40257253133","owner":"78457056@N00","secret":"66364e561d","server":"7907","farm":8,"title":"Het
        Vinne: la mouette sur son arbre","ispublic":1,"isfriend":0,"isfamily":0},{"id":"47222261821","owner":"32650254@N03","secret":"fa973714e2","server":"7900","farm":8,"title":"Willow
        Scape","ispublic":1,"isfriend":0,"isfamily":0},{"id":"47222253921","owner":"141825794@N06","secret":"457b6aa9f8","server":"7846","farm":8,"title":"Bison
        SUnset","ispublic":1,"isfriend":0,"isfamily":0},{"id":"47170173622","owner":"141825794@N06","secret":"8c3798a27a","server":"7878","farm":8,"title":"Bison
        SUnset","ispublic":1,"isfriend":0,"isfamily":0},{"id":"47222251931","owner":"31432833@N02","secret":"0f2b0fe487","server":"7915","farm":8,"title":"A
        Winters Brush","ispublic":1,"isfriend":0,"isfamily":0},{"id":"33346692388","owner":"134132385@N07","secret":"d89d603000","server":"7824","farm":8,"title":"Incoming","ispublic":1,"isfriend":0,"isfamily":0},{"id":"46498849674","owner":"152469926@N08","secret":"e23fcac833","server":"7894","farm":8,"title":"STUDENT
        PIECES - photography of the Typography exhibition at the 2018 University of
        reading end of year show.","ispublic":1,"isfriend":0,"isfamily":0},{"id":"46498845674","owner":"152469926@N08","secret":"e409460e6e","server":"7859","farm":8,"title":"STUDENT
        PIECES - photography of the Typography exhibition at the 2018 University of
        reading end of year show.","ispublic":1,"isfriend":0,"isfamily":0},{"id":"46498843024","owner":"148272004@N03","secret":"9181809ef3","server":"7876","farm":8,"title":"Trees
        and so","ispublic":1,"isfriend":0,"isfamily":0},{"id":"46307862135","owner":"152469926@N08","secret":"bbebf984e9","server":"7856","farm":8,"title":"STUDENT
        PIECES - photography of the Typography exhibition at the 2018 University of
        reading end of year show.","ispublic":1,"isfriend":0,"isfamily":0},{"id":"46498831384","owner":"152469926@N08","secret":"95bdbd0f02","server":"7894","farm":8,"title":"STUDENT
        PIECES - photography of the Typography exhibition at the 2018 University of
        reading end of year show.","ispublic":1,"isfriend":0,"isfamily":0},{"id":"46307854285","owner":"152469926@N08","secret":"d155b258c2","server":"7899","farm":8,"title":"STUDENT
        PIECES - photography of the Typography exhibition at the 2018 University of
        reading end of year show.","ispublic":1,"isfriend":0,"isfamily":0},{"id":"32280070497","owner":"112711738@N06","secret":"2a0befe0c7","server":"7904","farm":8,"title":"Flamingo
        Symphony.","ispublic":1,"isfriend":0,"isfamily":0},{"id":"47170131682","owner":"152469926@N08","secret":"8b9222152d","server":"7892","farm":8,"title":"STUDENT
        PIECES - photography of the Typography exhibition at the 2018 University of
        reading end of year show.","ispublic":1,"isfriend":0,"isfamily":0},{"id":"47222230981","owner":"146780520@N05","secret":"4c65cec459","server":"7847","farm":8,"title":"Winter
        landscape","ispublic":1,"isfriend":0,"isfamily":0},{"id":"32280061497","owner":"152469926@N08","secret":"9239ede0ea","server":"7821","farm":8,"title":"STUDENT
        PIECES - photography of the Typography exhibition at the 2018 University of
        reading end of year show.","ispublic":1,"isfriend":0,"isfamily":0},{"id":"32280055887","owner":"152469926@N08","secret":"4e9c5c2184","server":"7919","farm":8,"title":"STUDENT
        PIECES - photography of the Typography exhibition at the 2018 University of
        reading end of year show.","ispublic":1,"isfriend":0,"isfamily":0},{"id":"46307837465","owner":"20372750@N05","secret":"a4d941e154","server":"7895","farm":8,"title":"FastWideSlow","ispublic":1,"isfriend":0,"isfamily":0},{"id":"46498810134","owner":"152469926@N08","secret":"f977a930d5","server":"7811","farm":8,"title":"STUDENT
        PIECES - photography of the Typography exhibition at the 2018 University of
        reading end of year show.","ispublic":1,"isfriend":0,"isfamily":0},{"id":"32280041827","owner":"152469926@N08","secret":"a02e000de2","server":"7851","farm":8,"title":"STUDENT
        PIECES - photography of the Typography exhibition at the 2018 University of
        reading end of year show.","ispublic":1,"isfriend":0,"isfamily":0},{"id":"47222209701","owner":"152469926@N08","secret":"5b128fbd59","server":"7814","farm":8,"title":"STUDENT
        PIECES - photography of the Typography exhibition at the 2018 University of
        reading end of year show.","ispublic":1,"isfriend":0,"isfamily":0},{"id":"46498784564","owner":"152469926@N08","secret":"9056cec6c5","server":"7914","farm":8,"title":"STUDENT
        PIECES - photography of the Typography exhibition at the 2018 University of
        reading end of year show.","ispublic":1,"isfriend":0,"isfamily":0},{"id":"46307824525","owner":"84486950@N00","secret":"ea88f5444b","server":"7913","farm":8,"title":"Hazy
        trees","ispublic":1,"isfriend":0,"isfamily":0},{"id":"32280023487","owner":"152469926@N08","secret":"fa73c0df1f","server":"7880","farm":8,"title":"STUDENT
        PIECES - photography of the Typography exhibition at the 2018 University of
        reading end of year show.","ispublic":1,"isfriend":0,"isfamily":0},{"id":"40257179423","owner":"152469926@N08","secret":"972667e2c8","server":"7879","farm":8,"title":"STUDENT
        PIECES - photography of the Typography exhibition at the 2018 University of
        reading end of year show.","ispublic":1,"isfriend":0,"isfamily":0},{"id":"46498607184","owner":"91881940@N07","secret":"ff75553d8a","server":"7888","farm":8,"title":"SUN","ispublic":1,"isfriend":0,"isfamily":0},{"id":"33346469588","owner":"91881940@N07","secret":"5b95a305a3","server":"7831","farm":8,"title":"go
        to San Diego","ispublic":1,"isfriend":0,"isfamily":0},{"id":"47168957232","owner":"16230743@N06","secret":"820ec06893","server":"7854","farm":8,"title":"Wave
        Art<::::::::::::::::","ispublic":1,"isfriend":0,"isfamily":0},{"id":"46498776714","owner":"145612052@N03","secret":"042be24b59","server":"7894","farm":8,"title":"Wind","ispublic":1,"isfriend":0,"isfamily":0},{"id":"46307820905","owner":"144869046@N05","secret":"0144382184","server":"7813","farm":8,"title":"down","ispublic":1,"isfriend":0,"isfamily":0},{"id":"46307817685","owner":"145612052@N03","secret":"e1eb913306","server":"7860","farm":8,"title":"Natalie","ispublic":1,"isfriend":0,"isfamily":0},{"id":"46307815995","owner":"22652782@N07","secret":"34bc90ac73","server":"7842","farm":8,"title":"19-D-SS-NP-IMG_1512-HDR.jpg","ispublic":1,"isfriend":0,"isfamily":0},{"id":"46307805345","owner":"162065624@N06","secret":"1b37de6845","server":"7825","farm":8,"title":"","ispublic":1,"isfriend":0,"isfamily":0},{"id":"46498722984","owner":"156472398@N08","secret":"ee325216e7","server":"7834","farm":8,"title":"Horizon
        en relief","ispublic":1,"isfriend":0,"isfamily":0},{"id":"47170046642","owner":"133218059@N02","secret":"cec5442f80","server":"7804","farm":8,"title":"Cloud
        ring 1382","ispublic":1,"isfriend":0,"isfamily":0},{"id":"40257132903","owner":"133218059@N02","secret":"6ecd1b7b72","server":"7908","farm":8,"title":"On
        the ouskirts of Green River 1405","ispublic":1,"isfriend":0,"isfamily":0},{"id":"47170046312","owner":"133218059@N02","secret":"e6870c3d4c","server":"7803","farm":8,"title":"On
        the road 1385","ispublic":1,"isfriend":0,"isfamily":0},{"id":"40257132073","owner":"133218059@N02","secret":"fd4142293e","server":"7918","farm":8,"title":"On
        the road 1390","ispublic":1,"isfriend":0,"isfamily":0},{"id":"47170045552","owner":"133218059@N02","secret":"922d6a3339","server":"7834","farm":8,"title":"On
        the road 1394","ispublic":1,"isfriend":0,"isfamily":0},{"id":"40257130973","owner":"133218059@N02","secret":"ed6849991c","server":"7888","farm":8,"title":"Roadside
        geology 1387","ispublic":1,"isfriend":0,"isfamily":0},{"id":"47170045052","owner":"133218059@N02","secret":"e9f5dcd69c","server":"7867","farm":8,"title":"Roadside
        geology 1389","ispublic":1,"isfriend":0,"isfamily":0},{"id":"40257130283","owner":"133218059@N02","secret":"bf5185ee7b","server":"7815","farm":8,"title":"Roadside
        geology 1398","ispublic":1,"isfriend":0,"isfamily":0},{"id":"47170044742","owner":"133218059@N02","secret":"c0ea5ee2eb","server":"7877","farm":8,"title":"Roadside
        geology 1399","ispublic":1,"isfriend":0,"isfamily":0},{"id":"40257129433","owner":"133218059@N02","secret":"c52e54f5d5","server":"7924","farm":8,"title":"Taking
        a break from the open road 1383","ispublic":1,"isfriend":0,"isfamily":0},{"id":"40257129003","owner":"133218059@N02","secret":"fb0e289542","server":"7811","farm":8,"title":"The
        plywood cow of Murdoch 1381","ispublic":1,"isfriend":0,"isfamily":0},{"id":"46307778845","owner":"75237635@N05","secret":"f99655f1e6","server":"7879","farm":8,"title":"","ispublic":1,"isfriend":0,"isfamily":0},{"id":"46307776785","owner":"77974161@N05","secret":"1974f8a96b","server":"7913","farm":8,"title":"Nachtbaum","ispublic":1,"isfriend":0,"isfamily":0},{"id":"33346564338","owner":"127040173@N03","secret":"dfd5b378e4","server":"7888","farm":8,"title":"Mirador
        de l''Art","ispublic":1,"isfriend":0,"isfamily":0},{"id":"47222132611","owner":"50384914@N05","secret":"d10e9bfc70","server":"7878","farm":8,"title":"Cloudy
        Afternoon","ispublic":1,"isfriend":0,"isfamily":0},{"id":"46307759865","owner":"156810271@N04","secret":"a7fd3a50e3","server":"7878","farm":8,"title":"Venezia","ispublic":1,"isfriend":0,"isfamily":0},{"id":"40257116803","owner":"50384914@N05","secret":"9eb0e64404","server":"7826","farm":8,"title":"Covered
        Bridge","ispublic":1,"isfriend":0,"isfamily":0},{"id":"32279925247","owner":"22658345@N03","secret":"7c72a17be6","server":"7883","farm":8,"title":"Cascata
        do Salto do Cabrito","ispublic":1,"isfriend":0,"isfamily":0},{"id":"33346513448","owner":"77974161@N05","secret":"6d8c1012ba","server":"7814","farm":8,"title":"UFO?
        Oder doch nur das Fernlicht von einem Auto? Wer wei\u00df...","ispublic":1,"isfriend":0,"isfamily":0},{"id":"33346467758","owner":"91881940@N07","secret":"149ef25d0b","server":"7907","farm":8,"title":"Ocean
        Beach","ispublic":1,"isfriend":0,"isfamily":0},{"id":"33346467118","owner":"91881940@N07","secret":"7ce90ede6a","server":"7817","farm":8,"title":"Ocean
        Beach","ispublic":1,"isfriend":0,"isfamily":0},{"id":"47169942632","owner":"156810271@N04","secret":"13e66d6ff7","server":"7850","farm":8,"title":"Venezia","ispublic":1,"isfriend":0,"isfamily":0},{"id":"33346466648","owner":"91881940@N07","secret":"e69b6eb8cb","server":"7824","farm":8,"title":"Artist
        form Ocean Beach","ispublic":1,"isfriend":0,"isfamily":0},{"id":"32279875917","owner":"156810271@N04","secret":"96402a466d","server":"7881","farm":8,"title":"Venezia","ispublic":1,"isfriend":0,"isfamily":0},{"id":"47169942232","owner":"156810271@N04","secret":"a43bfc385a","server":"7858","farm":8,"title":"Venezia","ispublic":1,"isfriend":0,"isfamily":0},{"id":"32279875007","owner":"156810271@N04","secret":"a257cf5787","server":"7851","farm":8,"title":"Venezia","ispublic":1,"isfriend":0,"isfamily":0},{"id":"47169941982","owner":"156810271@N04","secret":"37d42218a1","server":"7800","farm":8,"title":"Venezia","ispublic":1,"isfriend":0,"isfamily":0},{"id":"47169941492","owner":"156810271@N04","secret":"89752fc0ba","server":"7849","farm":8,"title":"Venezia","ispublic":1,"isfriend":0,"isfamily":0},{"id":"32279870297","owner":"156810271@N04","secret":"0739361a27","server":"7830","farm":8,"title":"Venezia","ispublic":1,"isfriend":0,"isfamily":0},{"id":"46307662075","owner":"156810271@N04","secret":"59f5caf756","server":"7917","farm":8,"title":"Venezia","ispublic":1,"isfriend":0,"isfamily":0},{"id":"46307661605","owner":"156810271@N04","secret":"6522eccb9f","server":"7921","farm":8,"title":"Venezia","ispublic":1,"isfriend":0,"isfamily":0},{"id":"47169937212","owner":"156810271@N04","secret":"77c5099f02","server":"7876","farm":8,"title":"Venezia","ispublic":1,"isfriend":0,"isfamily":0},{"id":"46307661085","owner":"156810271@N04","secret":"05d7c3f455","server":"7815","farm":8,"title":"Venezia","ispublic":1,"isfriend":0,"isfamily":0},{"id":"46307660455","owner":"156810271@N04","secret":"c20deff538","server":"7889","farm":8,"title":"Venezia","ispublic":1,"isfriend":0,"isfamily":0},{"id":"47169936232","owner":"156810271@N04","secret":"5d7926d88b","server":"7835","farm":8,"title":"Venezia","ispublic":1,"isfriend":0,"isfamily":0},{"id":"32279867927","owner":"156810271@N04","secret":"226050812c","server":"7927","farm":8,"title":"Venezia","ispublic":1,"isfriend":0,"isfamily":0},{"id":"40257032223","owner":"156810271@N04","secret":"d55dbcce8c","server":"7880","farm":8,"title":"Venezia","ispublic":1,"isfriend":0,"isfamily":0},{"id":"46307657785","owner":"156810271@N04","secret":"b3af38871b","server":"7906","farm":8,"title":"Venezia","ispublic":1,"isfriend":0,"isfamily":0},{"id":"46498593204","owner":"156810271@N04","secret":"1f3741755e","server":"7850","farm":8,"title":"Venezia","ispublic":1,"isfriend":0,"isfamily":0},{"id":"46307655055","owner":"156810271@N04","secret":"f4d67b11b2","server":"7876","farm":8,"title":"Venezia","ispublic":1,"isfriend":0,"isfamily":0},{"id":"46307767405","owner":"162338126@N03","secret":"fb2c8c5c8c","server":"7868","farm":8,"title":"Gravure","ispublic":1,"isfriend":0,"isfamily":0},{"id":"47170021292","owner":"76388752@N05","secret":"b676e6f667","server":"7823","farm":8,"title":"asimetria","ispublic":1,"isfriend":0,"isfamily":0},{"id":"46307757255","owner":"144133332@N07","secret":"ebe75c416d","server":"7888","farm":8,"title":"Lonely
        house","ispublic":1,"isfriend":0,"isfamily":0},{"id":"33346556058","owner":"70940023@N07","secret":"9985c3f018","server":"7816","farm":8,"title":"Prospect
        Sunset","ispublic":1,"isfriend":0,"isfamily":0},{"id":"47222272591","owner":"75102303@N00","secret":"1a0e93ab39","server":"7893","farm":8,"title":"Loch
        Achray. Loch Lomond And Trossachs National Park.","ispublic":1,"isfriend":0,"isfamily":0},{"id":"46498886884","owner":"75102303@N00","secret":"867e2fed49","server":"7828","farm":8,"title":"Ben
        Ann. Loch Lomond And Trossachs National Park.","ispublic":1,"isfriend":0,"isfamily":0},{"id":"46307906095","owner":"75102303@N00","secret":"b7e0f54a9c","server":"7838","farm":8,"title":"Loch
        Achray. Loch Lomond And Trossachs National Park.","ispublic":1,"isfriend":0,"isfamily":0},{"id":"47170178262","owner":"152495814@N07","secret":"7581e63a4e","server":"7840","farm":8,"title":"Pinups
        - Coming Soon","ispublic":1,"isfriend":0,"isfamily":0},{"id":"32280107557","owner":"159776513@N06","secret":"cb6b80102c","server":"7906","farm":8,"title":"Choices","ispublic":1,"isfriend":0,"isfamily":0},{"id":"46498844434","owner":"76388752@N05","secret":"87914d4733","server":"7856","farm":8,"title":"S-Bahn
        station (prequel)","ispublic":1,"isfriend":0,"isfamily":0},{"id":"40257184033","owner":"121648781@N02","secret":"ae2846db6f","server":"7893","farm":8,"title":"Campos
        de trigo en Irlanda.","ispublic":1,"isfriend":0,"isfamily":0},{"id":"33346626088","owner":"136143863@N02","secret":"7425bef1e1","server":"7898","farm":8,"title":"Sonnenaufgang
        in Butjadingen #wattensteg #butjadingen #wesermarsch #niedersachsen #landscape
        #landschaftsfotografie #landschaft #nikonphotography #nikon #awesome #mehrmeer
        #k\u00fcste #nordsee #northsea #sunrise #sonnenaufgang","ispublic":1,"isfriend":0,"isfamily":0},{"id":"32280011697","owner":"145612052@N03","secret":"fd3afa9b9d","server":"7846","farm":8,"title":"Dance","ispublic":1,"isfriend":0,"isfamily":0},{"id":"46498750614","owner":"75102303@N00","secret":"0d603d1b50","server":"7817","farm":8,"title":"Loch
        Achray, Loch Lomond And Trossachs National Park","ispublic":1,"isfriend":0,"isfamily":0},{"id":"47170074352","owner":"75102303@N00","secret":"ee00128225","server":"7817","farm":8,"title":"Loch
        Achray, Loch Lomond And Trossachs National Park","ispublic":1,"isfriend":0,"isfamily":0},{"id":"33346610778","owner":"10158097@N02","secret":"b2532c5d05","server":"7863","farm":8,"title":"Jann
        in the Mangroves","ispublic":1,"isfriend":0,"isfamily":0},{"id":"33346610028","owner":"10158097@N02","secret":"91ea03e694","server":"7847","farm":8,"title":"The
        Mangrove Tree","ispublic":1,"isfriend":0,"isfamily":0},{"id":"47222183221","owner":"154988776@N05","secret":"3c8ee15146","server":"7827","farm":8,"title":"Amber
        Fields of Grain","ispublic":1,"isfriend":0,"isfamily":0},{"id":"46498739974","owner":"75102303@N00","secret":"cbeb45ee45","server":"7913","farm":8,"title":"Loch
        Achray, Loch Lomond And Trossachs National Park","ispublic":1,"isfriend":0,"isfamily":0},{"id":"47170064362","owner":"112711738@N06","secret":"d1c89379e7","server":"7819","farm":8,"title":"Lights.","ispublic":1,"isfriend":0,"isfamily":0},{"id":"32279871377","owner":"156810271@N04","secret":"59ed74bd37","server":"7850","farm":8,"title":"Venezia","ispublic":1,"isfriend":0,"isfamily":0},{"id":"32279867727","owner":"156810271@N04","secret":"73c11e48a2","server":"7882","farm":8,"title":"Venezia","ispublic":1,"isfriend":0,"isfamily":0},{"id":"40257116333","owner":"25866886@N06","secret":"85e1ff53e5","server":"7823","farm":8,"title":"Aguarales
        de Valpalmas","ispublic":1,"isfriend":0,"isfamily":0}]},"stat":"ok"}'
    http_version: 
  recorded_at: Tue, 26 Feb 2019 21:54:13 GMT
recorded_with: VCR 4.0.0
